{
	"info": {
		"_postman_id": "a00552ce-8803-4494-a9e1-d27317b8f616",
		"name": "apiEcommerce",
		"schema": "https://schema.getpostman.com/json/collection/v2.1.0/collection.json"
	},
	"item": [
		{
			"name": "GET ALL orders",
			"request": {
				"method": "GET",
				"header": [],
				"url": {
					"raw": "http://localhost:8080/api/orders/",
					"protocol": "http",
					"host": [
						"localhost"
					],
					"port": "8080",
					"path": [
						"api",
						"orders",
						""
					]
				}
			},
			"response": []
		},
		{
			"name": "GET ONE order",
			"request": {
				"method": "GET",
				"header": [],
				"url": {
					"raw": "http://localhost:8080/api/orders/1",
					"protocol": "http",
					"host": [
						"localhost"
					],
					"port": "8080",
					"path": [
						"api",
						"orders",
						"1"
					]
				}
			},
			"response": []
		},
		{
			"name": "POST order",
			"request": {
				"method": "POST",
				"header": [],
				"body": {
					"mode": "raw",
					"raw": "{    \r\n    \"code\": \"000010\",\r\n    \"date\": \"01/01/2022\",\r\n    \"customer\": {\r\n        \"id\": 1        \r\n    },\r\n    \"total_value\": 2000.0\r\n}",
					"options": {
						"raw": {
							"language": "json"
						}
					}
				},
				"url": {
					"raw": "http://localhost:8080/api/orders",
					"protocol": "http",
					"host": [
						"localhost"
					],
					"port": "8080",
					"path": [
						"api",
						"orders"
					]
				}
			},
			"response": []
		},
		{
			"name": "PUT order",
			"request": {
				"method": "PUT",
				"header": [],
				"body": {
					"mode": "raw",
					"raw": "{  \r\n     \"id\": 1,  \r\n    \"code\": \"000001\",\r\n    \"date\": \"01/01/2022\",\r\n    \"customer\": {\r\n        \"id\": 1,\r\n        \"name\": \"John Lenon\",\r\n        \"email\": \"jo@sky.com\",\r\n        \"fiscal_number\": \"02366655588\"\r\n    },\r\n    \"total_value\": 2000.1\r\n}",
					"options": {
						"raw": {
							"language": "json"
						}
					}
				},
				"url": {
					"raw": "http://localhost:8080/api/orders/1",
					"protocol": "http",
					"host": [
						"localhost"
					],
					"port": "8080",
					"path": [
						"api",
						"orders",
						"1"
					]
				}
			},
			"response": []
		},
		{
			"name": "DELETE order",
			"request": {
				"method": "DELETE",
				"header": [],
				"body": {
					"mode": "raw",
					"raw": "",
					"options": {
						"raw": {
							"language": "text"
						}
					}
				},
				"url": {
					"raw": "http://localhost:8080/api/orders/1",
					"protocol": "http",
					"host": [
						"localhost"
					],
					"port": "8080",
					"path": [
						"api",
						"orders",
						"1"
					]
				}
			},
			"response": []
		}
	]
}